Real Estate Research
…
Warning: Using an external vector in selections was deprecated in tidyselect 1.1.0.
ℹ Please use `all_of()` or `any_of()` instead.
  # Was:
  data %>% select(fmr_cols)

  # Now:
  data %>% select(all_of(fmr_cols))

See <https://tidyselect.r-lib.org/reference/faq-external-vector.html>.

fmr_40_50_towns

# A tibble: 322 × 17
   fips  count…¹ state…² popul…³ town_…⁴ hud_a…⁵ hud_a…⁶ rent_…⁷ rent_…⁸ rent_…⁹
   <chr> <chr>   <chr>     <dbl> <chr>   <chr>   <chr>     <dbl>   <dbl>   <dbl>
 1 0900… Fairfi… CT        19822 Bethel… Danbur… METRO1…    1350    1622    2019
 2 0900… Fairfi… CT       145014 Bridge… Bridge… METRO1…    1105    1332    1652
 3 0900… Fairfi… CT        17010 Brookf… Danbur… METRO1…    1350    1622    2019
 4 0900… Fairfi… CT        84650 Danbur… Danbur… METRO1…    1350    1622    2019
 5 0900… Fairfi… CT        21752 Darien… Stamfo… METRO1…    1735    2127    2563
 6 0900… Fairfi… CT         7510 Easton… Bridge… METRO1…    1105    1332    1652
 7 0900… Fairfi… CT        61954 Fairfi… Bridge… METRO1…    1105    1332    1652
 8 0900… Fairfi… CT        62714 Greenw… Stamfo… METRO1…    1735    2127    2563
 9 0900… Fairfi… CT        19492 Monroe… Bridge… METRO1…    1105    1332    1652
10 0900… Fairfi… CT        20249 New Ca… Stamfo… METRO1…    1735    2127    2563
# … with 312 more rows, 7 more variables: rent_40_3 <dbl>, rent_40_4 <dbl>,
#   rent_50_0 <dbl>, rent_50_1 <dbl>, rent_50_2 <dbl>, rent_50_3 <dbl>,
#   rent_50_4 <dbl>, and abbreviated variable names ¹​county_name, ²​state_abbr,
#   ³​population, ⁴​town_name, ⁵​hud_areaname, ⁶​hud_area_code, ⁷​rent_40_0,
#   ⁸​rent_40_1, ⁹​rent_40_2
…
Warning: Using an external vector in selections was deprecated in tidyselect 1.1.0.
ℹ Please use `all_of()` or `any_of()` instead.
  # Was:
  data %>% select(county_pop_cols)

  # Now:
  data %>% select(all_of(county_pop_cols))

See <https://tidyselect.r-lib.org/reference/faq-external-vector.html>.

low_vacancy

# A tibble: 153 × 6
   `County FIPS` county_name       state `Number Units` `Occupied Units` Perce…¹
   <chr>         <chr>             <chr>          <dbl>            <dbl>   <dbl>
 1 09001         Fairfield County  CT              7884             7609    96.5
 2 09003         Hartford County   CT              8948             8455    94.5
 3 09005         Litchfield County CT               979              938    95.8
 4 09007         Middlesex County  CT               991              932    94.1
 5 09009         New Haven County  CT              9000             8578    95.3
 6 09011         New London County CT              2669             2602    97.5
 7 09013         Tolland County    CT               944              910    96.4
 8 09015         Windham County    CT              1090             1036    95  
 9 10001         Kent County       DE              1083             1025    94.7
10 10003         New Castle County DE              3810             3616    94.9
# … with 143 more rows, and abbreviated variable name ¹​`Percent Occupied`

county_pop

# A tibble: 153 × 6
   CTYNAME           ESTIMATESBASE2020 POPESTIMATE2022 NPOPCHG…¹ NETMI…² state…³
   <chr>                         <dbl>           <dbl>     <dbl>   <dbl> <chr>  
 1 Kent County                  181856          186946      2575    2521 DE     
 2 New Castle County            570721          575494      2780    2755 DE     
 3 Sussex County                237380          255956      8234    9001 DE     
 4 Atlantic County              274536          275638       508    1026 NJ     
 5 Bergen County                955746          952997     -1882   -3341 NJ     
 6 Burlington County            461863          466103      1692    1733 NJ     
 7 Camden County                523486          524907       783     283 NJ     
 8 Cape May County               95266           95634      -134     509 NJ     
 9 Cumberland County            154148          151356      -733    -727 NJ     
10 Essex County                 862782          849477     -4644   -8007 NJ     
# … with 143 more rows, and abbreviated variable names ¹​NPOPCHG2022,
#   ²​NETMIG2022, ³​state_name
